<?xml version="1.0" encoding="UTF-8"?>
<svg xmlns="http://www.w3.org/2000/svg" width="217" height="20">
    <linearGradient id="b" x2="0" y2="100%">
        <stop offset="0" stop-color="#bbb" stop-opacity=".1"/>
        <stop offset="1" stop-opacity=".1"/>
    </linearGradient>
    <mask id="anybadge_1">
        <rect width="217" height="20" rx="3" fill="#fff"/>
    </mask>
    <g mask="url(#anybadge_1)">
        <path fill="#555" d="M0 0h150v20H0z"/>
        <path fill="#81e000" d="M150 0h67v20H150z"/>
        <path fill="url(#b)" d="M0 0h217v20H0z"/>
    </g>
    <g fill="#fff" text-anchor="middle" font-family="DejaVu Sans,Verdana,Geneva,sans-serif" font-size="11">
        <text x="76.0" y="15" fill="#010101" fill-opacity=".3">Banjo-Kazooie (us.v10)</text>
        <text x="75.0" y="14">Banjo-Kazooie (us.v10)</text>
    </g>
    <g fill="#fff" text-anchor="middle" font-family="DejaVu Sans,Verdana,Geneva,sans-serif" font-size="11">
        <text x="184.5" y="15" fill="#010101" fill-opacity=".3">71.1403%</text>
        <text x="183.5" y="14">71.1403%</text>
    </g>
</svg>